%YAML 1.1
%TAG !u! tag:unity3d.com,2011:
--- !u!114 &11400000
MonoBehaviour:
  m_ObjectHideFlags: 0
  m_CorrespondingSourceObject: {fileID: 0}
  m_PrefabInstance: {fileID: 0}
  m_PrefabAsset: {fileID: 0}
  m_GameObject: {fileID: 0}
  m_Enabled: 1
  m_EditorHideFlags: 0
  m_Script: {fileID: 11500000, guid: b86b34f7fc0b6d54687930bc3cab900f, type: 3}
  m_Name: "\uC9D1\uC5D0 \uBB3C\uAC74\uC744 \uB450\uACE0\uC654\uB2E4_\uC9C4\uD589"
  m_EditorClassIdentifier: 
  fame: 0
  money: 0
  placeType: Absolute
  place: 0
  time: -60
