%YAML 1.1
%TAG !u! tag:unity3d.com,2011:
--- !u!114 &11400000
MonoBehaviour:
  m_ObjectHideFlags: 0
  m_CorrespondingSourceObject: {fileID: 0}
  m_PrefabInstance: {fileID: 0}
  m_PrefabAsset: {fileID: 0}
  m_GameObject: {fileID: 0}
  m_Enabled: 1
  m_EditorHideFlags: 0
  m_Script: {fileID: 11500000, guid: 305f071ed249ac945bf4e5512e071e1d, type: 3}
  m_Name: "\uBAA8\uBC94\uD0DD\uC2DC \uD0D1\uC2B9"
  m_EditorClassIdentifier: 
  type: Select
  title: "\uBAA8\uBC94\uD0DD\uC2DC \uD0D1\uC2B9"
  description: "\uC790! \uB0A0\uC774\uBA74 \uB0A0\uB9C8\uB2E4 \uC624\uB294 \uAE30\uD68C\uAC00
    \uC544\uB2D9\uB2C8\uB2E4! \uBAA8\uBC94 \uC778\uC99D\uC744 \uBC1B\uC740 \uD0DD\uC2DC\uC5D0\uC11C
    \uD3B8\uC548\uD55C \uC2B9\uCC28\uAC10\uC744 \uC800\uB834\uD55C \uAC12\uC5D0 \uB204\uB9AC\uC2E4
    \uC218 \uC788\uC2B5\uB2C8\uB2E4! \uB2E8\uB3C8 500\uC6D0\uC73C\uB85C 20\uBC88\uC9F8
    \uCE78\uAE4C\uC9C0 \uC21C\uC2DD\uAC04\uC5D0 \uBCF4\uB0B4\uB4DC\uB824\uC694!"
  rewards: {fileID: 11400000, guid: 2c439b21d6e0f694ca80cc3723f9b16c, type: 2}
  penalty: {fileID: 0}
  anwser: 
