%YAML 1.1
%TAG !u! tag:unity3d.com,2011:
--- !u!114 &11400000
MonoBehaviour:
  m_ObjectHideFlags: 0
  m_CorrespondingSourceObject: {fileID: 0}
  m_PrefabInstance: {fileID: 0}
  m_PrefabAsset: {fileID: 0}
  m_GameObject: {fileID: 0}
  m_Enabled: 1
  m_EditorHideFlags: 0
  m_Script: {fileID: 11500000, guid: 305f071ed249ac945bf4e5512e071e1d, type: 3}
  m_Name: "\uC218\uD559 \uC120\uC0DD\uB2D8\uACFC\uC758 \uC870\uC6B0"
  m_EditorClassIdentifier: 
  type: Quiz
  title: "\uC218\uD559 \uC120\uC0DD\uB2D8\uACFC\uC758 \uC870\uC6B0"
  description: "\uC5BC\uB9C8 \uC804\uC5D0 \uC0C8\uB86D\uAC8C \uD559\uAD50\uC5D0 \uC624\uC2E0
    \uC218\uD559 \uC120\uC0DD\uB2D8\uACFC \uB9C8\uC8FC\uCE58\uAC8C \uB418\uC5C8\uC2B5\uB2C8\uB2E4.
    \uC219\uC81C\uB294 \uB2E4 \uD588\uB290\uB0D0\uBA70 \uC5EC\uCB48\uC2DC\uB294 \uC218\uD559
    \uC120\uC0DD\uB2D8\uAED8 \uC219\uC81C\uB97C \uB2E4 \uD588\uB2E4\uACE0 \uB9D0\uC500\uB4DC\uB9AC\uC790,
    \uADF8\uAC83\uC774 \uC815\uB9D0\uC778\uC9C0 \uBB38\uC81C\uB97C \uB0B4\uC168\uC2B5\uB2C8\uB2E4.\n\n\"\uC0AC\uACFC\uAC00
    10\uAC1C \uC788\uC2B5\uB2C8\uB2E4. \uC6D0\uC22D\uC774\uAC00 3\uAC1C\uB97C \uAC00\uC838\uAC14\uB294\uB370,
    \uADF8 \uC774\uD6C4\uC5D0 \uACFC\uC77C\uAC00\uAC8C \uC544\uC800\uC528\uAC00 \uC0C8\uB86D\uAC8C
    7\uAC1C\uB97C \uC8FC\uC168\uB2E4\uBA74 \uACFC\uC77C\uC740 \uCD1D \uBA87\uAC1C\uC77C\uAE4C\uC694?\""
  rewards: {fileID: 11400000, guid: 5ee27ba174489484382adbfabce67cd8, type: 2}
  penalty: {fileID: 11400000, guid: 7150df64c6f7d214db59e76a664e73a3, type: 2}
  anwser: 14
