%YAML 1.1
%TAG !u! tag:unity3d.com,2011:
--- !u!114 &11400000
MonoBehaviour:
  m_ObjectHideFlags: 0
  m_CorrespondingSourceObject: {fileID: 0}
  m_PrefabInstance: {fileID: 0}
  m_PrefabAsset: {fileID: 0}
  m_GameObject: {fileID: 0}
  m_Enabled: 1
  m_EditorHideFlags: 0
  m_Script: {fileID: 11500000, guid: 305f071ed249ac945bf4e5512e071e1d, type: 3}
  m_Name: "\uC5BC\uC9F1 \uAC01\uB3C4"
  m_EditorClassIdentifier: 
  type: Quiz
  title: "\uC5BC\uC9F1 \uAC01\uB3C4"
  description: "\uC140\uD504 \uCE74\uBA54\uB77C\uB97C \uD1B5\uD574 \uC0AC\uC9C4\uC744
    \uCC0D\uC744 \uB54C\uB294 \uC0C1\uB300\uC801\uC73C\uB85C \uC608\uC058\uAC8C \uCC0D\uD788\uB294
    \uAC01\uB3C4\uB97C \uC120\uD638\uD569\uB2C8\uB2E4. \uC0AC\uC9C4\uC744 \uC704\uC5D0\uC11C
    \uC544\uB798\uB85C \uCC0D\uC5B4\uC57C \uC0C1\uB300\uC801\uC73C\uB85C \uC0AC\uC9C4\uC774
    \uC798 \uB098\uC624\uB294\uB370, \uC774 \uB54C \uCE74\uBA54\uB77C\uB97C \uC704\uB85C
    \uC62C\uB9AC\uAE30 \uC704\uD574\uC11C \uD314\uC744 \uC62C\uB838\uC744 \uB54C,
    \uC5B4\uAE68\uAC00 \uC88C\uD45C\uACC4\uC758 0,0\uC5D0 \uC704\uCE58\uD55C\uB2E4\uACE0
    \uD558\uBA74, \uC190\uC774 2, -2\uC5D0 \uB3C4\uB2EC\uD558\uAC8C \uB41C\uB2E4\uBA74
    \uADF8 \uAC01\uB3C4\uC758 \uC808\uB300\uAC12\uC740?"
  rewards: {fileID: 11400000, guid: 41153a979b146394a90e47565db55690, type: 2}
  penalty: {fileID: 11400000, guid: fee38ec1bd1ee584593f7a6a921aa7e5, type: 2}
  anwser: 45
