%YAML 1.1
%TAG !u! tag:unity3d.com,2011:
--- !u!114 &11400000
MonoBehaviour:
  m_ObjectHideFlags: 0
  m_CorrespondingSourceObject: {fileID: 0}
  m_PrefabInstance: {fileID: 0}
  m_PrefabAsset: {fileID: 0}
  m_GameObject: {fileID: 0}
  m_Enabled: 1
  m_EditorHideFlags: 0
  m_Script: {fileID: 11500000, guid: 305f071ed249ac945bf4e5512e071e1d, type: 3}
  m_Name: "\uD5A5\uC218\uBCD1"
  m_EditorClassIdentifier: 
  type: Story
  title: "\uD5A5\uC218\uBCD1"
  description: "\uAC11\uC790\uAE30 \uC9D1\uC5D0 \uB3CC\uC544\uAC00\uACE0 \uC2F6\uC740
    \uB9C8\uC74C\uC774 \uC0DD\uACA8\uC11C \uB4A4\uB85C \uB3CC\uC544\uAC00\uB2E4\uAC00
    \uB3C4\uC911\uC5D0 \uC815\uC2E0\uC744 \uCC28\uB838\uC2B5\uB2C8\uB2E4.\n19\uBC88
    \uBE14\uB7ED\uC73C\uB85C \uC774\uB3D9\uD569\uB2C8\uB2E4."
  rewards: {fileID: 11400000, guid: 1e0efc30b83e8a845a10e72a263ed4fb, type: 2}
  penalty: {fileID: 0}
  anwser: 
