%YAML 1.1
%TAG !u! tag:unity3d.com,2011:
--- !u!114 &11400000
MonoBehaviour:
  m_ObjectHideFlags: 0
  m_CorrespondingSourceObject: {fileID: 0}
  m_PrefabInstance: {fileID: 0}
  m_PrefabAsset: {fileID: 0}
  m_GameObject: {fileID: 0}
  m_Enabled: 1
  m_EditorHideFlags: 0
  m_Script: {fileID: 11500000, guid: 305f071ed249ac945bf4e5512e071e1d, type: 3}
  m_Name: "\uD754\uD558\uB514 \uD754\uD55C \uD0DD\uC2DC"
  m_EditorClassIdentifier: 
  type: Select
  title: "\uD754\uD558\uB514 \uD754\uD55C \uD0DD\uC2DC"
  description: "\uB3D9\uB124\uC5D0\uC11C \uC790\uC8FC \uBCF4\uB358 \uD754\uD55C \uD0DD\uC2DC\uB97C
    \uB9C8\uC8FC\uCCE4\uC2B5\uB2C8\uB2E4. \uC694\uAE08 200\uC6D0\uB9CC \uB0B4\uBA74
    18\uBC88 \uBE14\uB7ED\uAE4C\uC9C0 \uC774\uB3D9\uD560 \uC218 \uC788\uB2E4\uACE0
    \uD558\uB124\uC694!"
  rewards: {fileID: 11400000, guid: 2526eae5c2ad98341bafcd24275d973d, type: 2}
  penalty: {fileID: 0}
  anwser: 
